…
此时我们读取该数据的话，显示如下：

```
library(readr)
link <- "https://dataverse.harvard.edu/api/access/datafile/2712105"
stickers <- read_tsv(link)
stickers
```
```
## # A tibble: 402 x 18
##    SubjectNumber Condition NumberStickers NumberEnvelopes Gender Agemonths
##    <chr>         <chr>     <chr>          <chr>           <chr>      <dbl>
##  1 [Included Sa~ 1=12:1; ~ 1=12; 2=30     1=1 recipient;~ 1=fem~        NA
##  2 1             1         1              1               1             36
##  3 2             1         1              1               2             36
##  4 3             1         1              1               2             36
##  5 4             1         1              1               1             36
##  6 5             1         1              1               2             36
##  7 6             1         1              1               2             36
##  8 7             2         1              2               1             36
##  9 8             2         1              2               2             36
## 10 9             3         2              1               2             36
## # ... with 392 more rows, and 12 more variables: Ageyears <dbl>,
## #   Agegroups <chr>, `Subject'sEnvelope` <chr>, LeftEnvelope <chr>,
## #   RightEnvelope <chr>,
## #   `absolutenumberofstickersgiven(Conditions1or3:Outof12;Conditions2or4:Outof30)` <chr>,
## #   `PercentGiven(Outof100percent)` <chr>, Giveornot <chr>,
## #   LargerEnvelopeabs <chr>, LargeEnvelopepercent <chr>,
## #   SmallerEnvelopeabs <chr>, SmallEnvelopepercent <chr>
```
…
#读取数据并设置列名
stickers <- link%>%
  read_tsv(skip = 2, col_names = stickers_name)%>%
  clean_names()
stickers
```
```
## # A tibble: 401 x 18
##    subject_number condition number_stickers number_envelopes gender
##             <int>     <int>           <int>            <int>  <int>
##  1              1         1               1                1      1
##  2              2         1               1                1      2
##  3              3         1               1                1      2
##  4              4         1               1                1      1
##  5              5         1               1                1      2
##  6              6         1               1                1      2
##  7              7         2               1                2      1
##  8              8         2               1                2      2
##  9              9         3               2                1      2
## 10             10         3               2                1      2
## # ... with 391 more rows, and 13 more variables: agemonths <dbl>,
## #   ageyears <dbl>, agegroups <int>, subjects_envelope <int>,
## #   left_envelope <int>, right_envelope <int>, stickersgiven <int>,
## #   percent_given_outof100percent <dbl>, giveornot <int>,
## #   larger_envelopeabs <int>, large_envelopepercent <dbl>,
## #   smaller_envelopeabs <int>, small_envelopepercent <dbl>
```
…
