…
### 数据

数据来自2017年国家电子伤害监督系统里的数据集`injuries`，包含25万观测值

```
injuries <- vroom::vroom("injuries.tsv.gz")
injuries
# A tibble: 255,064 x 10
   trmt_date    age sex   race  body_part diag  location prod_code
   <date>     <dbl> <chr> <chr> <chr>     <chr> <chr>        <dbl>
 1 2017-01-01    71 male  white Upper Tr… Cont… Other P…      1807
 2 2017-01-01    16 male  white Lower Arm Burn… Home           676
 3 2017-01-01    58 male  white Upper Tr… Cont… Home           649
 4 2017-01-01    21 male  white Lower Tr… Stra… Home          4076
 5 2017-01-01    54 male  white Head      Inte… Other P…      1807
 6 2017-01-01    21 male  white Hand      Frac… Home          1884
 7 2017-01-01    35 fema… not … Lower Tr… Stra… Home          1807
 8 2017-01-01    62 fema… not … Lower Arm Lace… Home          4074
 9 2017-01-01    22 male  not … Knee      Disl… Home          4076
10 2017-01-01    58 fema… not … Lower Leg Frac… Home          1842
# … with 255,054 more rows, and 2 more variables: weight <dbl>,
#   narrative <chr>
```
…
还有另外两个数据集：

* `products`：伤害与代码的对应关系
* `population`：2017年全美对应年龄性别的人口

```
products <- vroom::vroom("products.tsv")
products
# A tibble: 38 x 2
   prod_code title                                   
       <dbl> <chr>                                   
 1       464 knives, not elsewhere classified        
 2       474 tableware and accessories               
 3       604 desks, chests, bureaus or buffets       
 4       611 bathtubs or showers                     
 5       649 toilets                                 
 6       676 rugs or carpets, not specified          
 7       679 sofas, couches, davenports, divans or st
 8      1141 containers, not specified               
 9      1200 sports or recreational activity, n.e.c. 
10      1205 basketball (activity, apparel or equip.)
# … with 28 more rows

population <- vroom::vroom("population.tsv")
population
# A tibble: 170 x 3
     age sex    population
   <dbl> <chr>       <dbl>
 1     0 female    1924145
 2     0 male      2015150
 3     1 female    1943534
 4     1 male      2031718
 5     2 female    1965150
 6     2 male      2056625
 7     3 female    1956281
 8     3 male      2050474
 9     4 female    1953782
10     4 male      2042001
# … with 160 more rows
```
### 数据探索

创建**Shiny App**前，首先了解数据，先看看伤害代号为`1842`的有多少：

```
selected <- injuries %>% filter(prod_code == 1842)
nrow(selected)
#> [1] 30647
```

再针对不同变量`diagnosis`、`body_part`、`location`进行统计`weight`变量

```
selected %>% count(diag, wt = weight, sort = TRUE)
# A tibble: 23 x 2
   diag                        n
   <chr>                   <dbl>
 1 Strain, Sprain        267892.
 2 Fracture              243082.
 3 Other Or Not Stated   227515.
 4 Contusion Or Abrasion 195172.
 5 Inter Organ Injury    111340.
 6 Laceration             89190.
 7 Concussion             18983.
 8 Dislocation            16556.
 9 Hematoma               13080.
10 Nerve Damage            7705.
# … with 13 more rows

selected %>% count(body_part, wt = weight, sort = TRUE)
# A tibble: 25 x 2
   body_part         n
   <chr>         <dbl>
 1 Ankle       183470.
 2 Head        174725.
 3 Lower Trunk 150459.
 4 Knee        112162.
 5 Upper Trunk  98197.
 6 Face         73815.
 7 Foot         73388.
 8 Shoulder     52637.
 9 Lower Leg    52254.
10 Wrist        39202.
# … with 15 more rows
…
可以看出与`楼梯`有关的伤害主要集中在关节扭伤、拉伤、骨折等，且大多发生在家里。再看看年龄与性别，

```
-> summary <- selected %>% 
   count(age, sex, wt = weight)
-> summary
# A tibble: 204 x 3
     age sex         n
   <dbl> <chr>   <dbl>
 1     0 female  3714.
 2     0 male    3981.
 3     1 female 12155.
 4     1 male   12898.
 5     2 female  6949.
 6     2 male    9730.
 7     3 female  4542.
 8     3 male    8404.
 9     4 female  3618.
10     4 male    4845.
# … with 194 more rows
```
…
可以看到随着小孩学会走路，伤害的次数逐渐增多后逐渐平缓，有趣的是女性（高跟鞋的缘故？）受伤次数远远高于男性。由于老年人远远少于青年人，这种比较失衡，所以用受伤率来展示：

```
summary <- selected %>% 
  count(age, sex, wt = weight) %>% 
  left_join(population, by = c("age", "sex")) %>% 
  mutate(rate = n / population * 1e4)
summary
# A tibble: 204 x 5
     age sex         n population  rate
   <dbl> <chr>   <dbl>      <dbl> <dbl>
 1     0 female  3714.    1924145  19.3
 2     0 male    3981.    2015150  19.8
 3     1 female 12155.    1943534  62.5
 4     1 male   12898.    2031718  63.5
 5     2 female  6949.    1965150  35.4
 6     2 male    9730.    2056625  47.3
 7     3 female  4542.    1956281  23.2
 8     3 male    8404.    2050474  41.0
 9     4 female  3618.    1953782  18.5
10     4 male    4845.    2042001  23.7
# … with 194 more rows
```
…
